[gd_scene load_steps=3 format=2]

[ext_resource path="res://assets/environments/Ground/newTiles.tres" type="TileSet" id=1]

[sub_resource type="Curve2D" id=3]
_data = {
"points": PoolVector2Array( 0, 0, 0, 0, 1023, -382, 0, -139.589, 0, 139.589, 1023, 383, 0, 0, 0, 0, 1153, 514, -126.508, -0.890899, 126.508, 0.890899, 1792, 512, 0, 0, 0, 0, 1919, 382, -1.7818, 128.289, 1.7818, -128.289, 1918, 129, 0, 0, 0, 0, 2050, -1, -125.992, 0, 125.992, 0, 3331, -1, 0, 0, 0, 0, 3456, 127, -1.88775, -132.142, 1.88775, 132.142, 3462, 1154, 0, 0, 0, 0, 3328, 1280, 147.244, 0, -147.244, 0, 383, 1281, 0, 0, 0, 0, 255, 1153, 0, 151.02, 0, -151.02, 255, 384, 0, 0, 0, 0, 128, 254, 135.918, 0, -135.918, 0, -768, 256, 0, 0, 0, 0, -897, 385, 0, -148.325, 0, 148.325, -901, 1920, 0, 0, 0, 0, -765, 2049, 0, 0, 0, 0, 1920, 2049, -133.492, -2.11893, 133.492, 2.11893, 2433, 2046, 0, 0, 0, 0, 2562, 2175, 0, 0, 0, 0, 2560, 2825 )
}

[node name="Map1" type="Node2D"]
position = Vector2( 1, 1 )

[node name="Ground" type="TileMap" parent="."]
position = Vector2( 1279, 384 )
tile_set = ExtResource( 1 )
cell_size = Vector2( 128, 128 )
format = 1
tile_data = PoolIntArray( -131082, 4, 0, -131081, 4, 0, -131080, 4, 0, -131079, 4, 0, -131078, 4, 0, -131077, 4, 0, -131076, 4, 0, -131075, 4, 0, -131074, 4, 0, -131073, 4, 0, -196608, 4, 0, -196607, 4, 0, -196606, 4, 0, -196605, 4, 0, -196604, 4, 0, -196603, 4, 0, -196602, 4, 0, -196601, 13, 0, -196600, 13, 0, -196599, 4, 0, -196598, 4, 0, -196597, 4, 0, -196596, 4, 0, -196595, 4, 0, -196594, 4, 0, -196593, 4, 0, -196592, 4, 0, -196591, 4, 0, -196590, 4, 0, -196589, 4, 0, -196588, 4, 0, -196587, 4, 0, -196586, 4, 0, -196585, 4, 0, -196584, 4, 0, -196583, 4, 0, -196582, 4, 0, -196581, 4, 0, -196580, 4, 0, -196579, 4, 0, -65546, 4, 0, -65545, 4, 0, -65544, 4, 0, -65543, 4, 0, -65542, 4, 0, -65541, 4, 0, -65540, 4, 0, -65539, 4, 0, -65538, 4, 0, -65537, 4, 0, -131072, 4, 0, -131071, 4, 0, -131070, 4, 0, -131069, 4, 0, -131068, 4, 0, -131067, 4, 0, -131066, 4, 0, -131065, 13, 0, -131064, 13, 0, -131063, 4, 0, -131062, 4, 0, -131061, 4, 0, -131060, 4, 0, -131059, 4, 0, -131058, 4, 0, -131057, 4, 0, -131056, 4, 0, -131055, 4, 0, -131054, 4, 0, -131053, 4, 0, -131052, 4, 0, -131051, 4, 0, -131050, 4, 0, -131049, 4, 0, -131048, 4, 0, -131047, 4, 0, -131046, 4, 0, -131045, 4, 0, -131044, 4, 0, -131043, 4, 0, -10, 4, 0, -9, 4, 0, -8, 4, 0, -7, 4, 0, -6, 4, 0, -5, 4, 0, -4, 4, 0, -3, 4, 0, -2, 4, 0, -1, 4, 0, -65536, 4, 0, -65535, 4, 0, -65534, 4, 0, -65533, 4, 0, -65532, 4, 0, -65531, 4, 0, -65530, 4, 0, -65529, 4, 0, -65528, 4, 0, -65527, 4, 0, -65526, 4, 0, -65525, 4, 0, -65524, 4, 0, -65523, 4, 0, -65522, 4, 0, -65521, 4, 0, -65520, 4, 0, -65519, 4, 0, -65518, 4, 0, -65517, 4, 0, -65516, 4, 0, -65515, 4, 0, -65514, 4, 0, -65513, 4, 0, -65512, 4, 0, -65511, 4, 0, -65510, 4, 0, -65509, 4, 0, -65508, 4, 0, -65507, 4, 0, 65526, 4, 0, 65527, 4, 0, 65528, 4, 0, 65529, 4, 0, 65530, 4, 0, 65531, 4, 0, 65532, 4, 0, 65533, 4, 0, 65534, 4, 0, 65535, 4, 0, 0, 4, 0, 1, 4, 0, 2, 4, 0, 3, 4, 0, 4, 4, 0, 5, 4, 0, 6, 4, 0, 7, 4, 0, 8, 4, 0, 9, 4, 0, 10, 4, 0, 11, 4, 0, 12, 4, 0, 13, 4, 0, 14, 4, 0, 15, 4, 0, 16, 4, 0, 17, 4, 0, 18, 4, 0, 19, 4, 0, 20, 4, 0, 21, 4, 0, 22, 4, 0, 23, 4, 0, 24, 4, 0, 25, 4, 0, 26, 4, 0, 27, 4, 0, 28, 4, 0, 29, 4, 0, 131062, 4, 0, 131063, 4, 0, 131064, 4, 0, 131065, 4, 0, 131066, 4, 0, 131067, 4, 0, 131068, 4, 0, 131069, 4, 0, 131070, 4, 0, 131071, 4, 0, 65536, 4, 0, 65537, 4, 0, 65538, 4, 0, 65539, 4, 0, 65540, 4, 0, 65541, 4, 0, 65542, 4, 0, 65543, 4, 0, 65544, 4, 0, 65545, 4, 0, 65546, 4, 0, 65547, 4, 0, 65548, 4, 0, 65549, 4, 0, 65550, 4, 0, 65551, 4, 0, 65552, 4, 0, 65553, 4, 0, 65554, 4, 0, 65555, 4, 0, 65556, 4, 0, 65557, 4, 0, 65558, 4, 0, 65559, 4, 0, 65560, 4, 0, 65561, 4, 0, 65562, 4, 0, 65563, 4, 0, 65564, 4, 0, 65565, 4, 0, 196598, 4, 0, 196599, 4, 0, 196600, 4, 0, 196601, 4, 0, 196602, 4, 0, 196603, 4, 0, 196604, 4, 0, 196605, 4, 0, 196606, 4, 0, 196607, 4, 0, 131072, 4, 0, 131073, 4, 0, 131074, 4, 0, 131075, 4, 0, 131076, 4, 0, 131077, 4, 0, 131078, 4, 0, 131079, 4, 0, 131080, 4, 0, 131081, 4, 0, 131082, 4, 0, 131083, 4, 0, 131084, 4, 0, 131085, 4, 0, 131086, 4, 0, 131087, 4, 0, 131088, 4, 0, 131089, 4, 0, 131090, 4, 0, 131091, 4, 0, 131092, 4, 0, 131093, 4, 0, 131094, 4, 0, 131095, 4, 0, 131096, 4, 0, 131097, 4, 0, 131098, 4, 0, 131099, 4, 0, 131100, 4, 0, 131101, 4, 0, 262134, 4, 0, 262135, 4, 0, 262136, 4, 0, 262137, 4, 0, 262138, 4, 0, 262139, 4, 0, 262140, 4, 0, 262141, 4, 0, 262142, 4, 0, 262143, 4, 0, 196608, 4, 0, 196609, 4, 0, 196610, 4, 0, 196611, 4, 0, 196612, 4, 0, 196613, 4, 0, 196614, 4, 0, 196615, 4, 0, 196616, 4, 0, 196617, 4, 0, 196618, 4, 0, 196619, 4, 0, 196620, 4, 0, 196621, 4, 0, 196622, 4, 0, 196623, 4, 0, 196624, 4, 0, 196625, 4, 0, 196626, 4, 0, 196627, 4, 0, 196628, 4, 0, 196629, 4, 0, 196630, 4, 0, 196631, 4, 0, 196632, 4, 0, 196633, 4, 0, 196634, 4, 0, 196635, 4, 0, 196636, 4, 0, 196637, 4, 0, 327670, 4, 0, 327671, 4, 0, 327672, 4, 0, 327673, 4, 0, 327674, 4, 0, 327675, 4, 0, 327676, 4, 0, 327677, 4, 0, 327678, 4, 0, 327679, 4, 0, 262144, 4, 0, 262145, 4, 0, 262146, 4, 0, 262147, 4, 0, 262148, 4, 0, 262149, 4, 0, 262150, 4, 0, 262151, 4, 0, 262152, 4, 0, 262153, 4, 0, 262154, 4, 0, 262155, 4, 0, 262156, 4, 0, 262157, 4, 0, 262158, 4, 0, 262159, 4, 0, 262160, 4, 0, 262161, 4, 0, 262162, 4, 0, 262163, 4, 0, 262164, 4, 0, 262165, 4, 0, 262166, 4, 0, 262167, 4, 0, 262168, 4, 0, 262169, 4, 0, 262170, 4, 0, 262171, 4, 0, 262172, 4, 0, 262173, 4, 0, 393206, 4, 0, 393207, 4, 0, 393208, 4, 0, 393209, 4, 0, 393210, 4, 0, 393211, 4, 0, 393212, 4, 0, 393213, 4, 0, 393214, 4, 0, 393215, 4, 0, 327680, 4, 0, 327681, 4, 0, 327682, 4, 0, 327683, 4, 0, 327684, 4, 0, 327685, 4, 0, 327686, 4, 0, 327687, 4, 0, 327688, 4, 0, 327689, 4, 0, 327690, 4, 0, 327691, 4, 0, 327692, 4, 0, 327693, 4, 0, 327694, 4, 0, 327695, 4, 0, 327696, 4, 0, 327697, 4, 0, 327698, 4, 0, 327699, 4, 0, 327700, 4, 0, 327701, 4, 0, 327702, 4, 0, 327703, 4, 0, 327704, 4, 0, 327705, 4, 0, 327706, 4, 0, 327707, 4, 0, 327708, 4, 0, 327709, 4, 0, 458742, 4, 0, 458743, 4, 0, 458744, 4, 0, 458745, 4, 0, 458746, 4, 0, 458747, 4, 0, 458748, 4, 0, 458749, 4, 0, 458750, 4, 0, 458751, 4, 0, 393216, 4, 0, 393217, 4, 0, 393218, 4, 0, 393219, 4, 0, 393220, 4, 0, 393221, 4, 0, 393222, 4, 0, 393223, 4, 0, 393224, 4, 0, 393225, 4, 0, 393226, 4, 0, 393227, 4, 0, 393228, 4, 0, 393229, 4, 0, 393230, 4, 0, 393231, 4, 0, 393232, 4, 0, 393233, 4, 0, 393234, 4, 0, 393235, 4, 0, 393236, 4, 0, 393237, 4, 0, 393238, 4, 0, 393239, 4, 0, 393240, 4, 0, 393241, 4, 0, 393242, 4, 0, 393243, 4, 0, 393244, 4, 0, 393245, 4, 0, 524278, 4, 0, 524279, 4, 0, 524280, 4, 0, 524281, 4, 0, 524282, 4, 0, 524283, 4, 0, 524284, 4, 0, 524285, 4, 0, 524286, 4, 0, 524287, 4, 0, 458752, 4, 0, 458753, 4, 0, 458754, 4, 0, 458755, 4, 0, 458756, 4, 0, 458757, 4, 0, 458758, 4, 0, 458759, 4, 0, 458760, 4, 0, 458761, 4, 0, 458762, 4, 0, 458763, 4, 0, 458764, 4, 0, 458765, 4, 0, 458766, 4, 0, 458767, 4, 0, 458768, 4, 0, 458769, 4, 0, 458770, 4, 0, 458771, 4, 0, 458772, 4, 0, 458773, 4, 0, 458774, 4, 0, 458775, 4, 0, 458776, 4, 0, 458777, 4, 0, 458778, 4, 0, 458779, 4, 0, 458780, 4, 0, 458781, 4, 0, 589814, 4, 0, 589815, 4, 0, 589816, 4, 0, 589817, 4, 0, 589818, 4, 0, 589819, 4, 0, 589820, 4, 0, 589821, 4, 0, 589822, 4, 0, 589823, 4, 0, 524288, 4, 0, 524289, 4, 0, 524290, 4, 0, 524291, 4, 0, 524292, 4, 0, 524293, 4, 0, 524294, 4, 0, 524295, 4, 0, 524296, 4, 0, 524297, 4, 0, 524298, 4, 0, 524299, 4, 0, 524300, 4, 0, 524301, 4, 0, 524302, 4, 0, 524303, 4, 0, 524304, 4, 0, 524305, 4, 0, 524306, 4, 0, 524307, 4, 0, 524308, 4, 0, 524309, 4, 0, 524310, 4, 0, 524311, 4, 0, 524312, 4, 0, 524313, 4, 0, 524314, 4, 0, 524315, 4, 0, 524316, 4, 0, 524317, 4, 0, 655350, 4, 0, 655351, 4, 0, 655352, 4, 0, 655353, 4, 0, 655354, 4, 0, 655355, 4, 0, 655356, 4, 0, 655357, 4, 0, 655358, 4, 0, 655359, 4, 0, 589824, 4, 0, 589825, 4, 0, 589826, 4, 0, 589827, 4, 0, 589828, 4, 0, 589829, 4, 0, 589830, 4, 0, 589831, 4, 0, 589832, 4, 0, 589833, 4, 0, 589834, 4, 0, 589835, 4, 0, 589836, 4, 0, 589837, 4, 0, 589838, 4, 0, 589839, 4, 0, 589840, 4, 0, 589841, 4, 0, 589842, 4, 0, 589843, 4, 0, 589844, 4, 0, 589845, 4, 0, 589846, 4, 0, 589847, 4, 0, 589848, 4, 0, 589849, 4, 0, 589850, 4, 0, 589851, 4, 0, 589852, 4, 0, 589853, 4, 0, 720886, 4, 0, 720887, 4, 0, 720888, 4, 0, 720889, 4, 0, 720890, 4, 0, 720891, 4, 0, 720892, 4, 0, 720893, 4, 0, 720894, 4, 0, 720895, 4, 0, 655360, 4, 0, 655361, 4, 0, 655362, 4, 0, 655363, 4, 0, 655364, 4, 0, 655365, 4, 0, 655366, 4, 0, 655367, 4, 0, 655368, 4, 0, 655369, 4, 0, 655370, 4, 0, 655371, 4, 0, 655372, 4, 0, 655373, 4, 0, 655374, 4, 0, 655375, 4, 0, 655376, 4, 0, 655377, 4, 0, 655378, 4, 0, 655379, 4, 0, 655380, 4, 0, 655381, 4, 0, 655382, 4, 0, 655383, 4, 0, 655384, 4, 0, 655385, 4, 0, 655386, 4, 0, 655387, 4, 0, 655388, 4, 0, 655389, 4, 0, 786422, 4, 0, 786423, 4, 0, 786424, 4, 0, 786425, 4, 0, 786426, 4, 0, 786427, 4, 0, 786428, 4, 0, 786429, 4, 0, 786430, 4, 0, 786431, 4, 0, 720896, 4, 0, 720897, 4, 0, 720898, 4, 0, 720899, 4, 0, 720900, 4, 0, 720901, 4, 0, 720902, 4, 0, 720903, 4, 0, 720904, 4, 0, 720905, 4, 0, 720906, 4, 0, 720907, 4, 0, 720908, 4, 0, 720909, 4, 0, 720910, 4, 0, 720911, 4, 0, 720912, 4, 0, 720913, 4, 0, 720914, 4, 0, 720915, 4, 0, 720916, 4, 0, 720917, 4, 0, 720918, 4, 0, 720919, 4, 0, 720920, 4, 0, 720921, 4, 0, 720922, 4, 0, 720923, 4, 0, 720924, 4, 0, 720925, 4, 0, 851958, 4, 0, 851959, 4, 0, 851960, 4, 0, 851961, 4, 0, 851962, 4, 0, 851963, 4, 0, 851964, 4, 0, 851965, 4, 0, 851966, 4, 0, 851967, 4, 0, 786432, 4, 0, 786433, 4, 0, 786434, 4, 0, 786435, 4, 0, 786436, 4, 0, 786437, 4, 0, 786438, 4, 0, 786439, 4, 0, 786440, 4, 0, 786441, 4, 0, 786442, 4, 0, 786443, 4, 0, 786444, 4, 0, 786445, 4, 0, 786446, 4, 0, 786447, 4, 0, 786448, 4, 0, 786449, 4, 0, 786450, 4, 0, 786451, 4, 0, 786452, 4, 0, 786453, 4, 0, 786454, 4, 0, 786455, 4, 0, 786456, 4, 0, 786457, 4, 0, 786458, 4, 0, 786459, 4, 0, 786460, 4, 0, 786461, 4, 0, 917494, 4, 0, 917495, 4, 0, 917496, 4, 0, 917497, 4, 0, 917498, 4, 0, 917499, 4, 0, 917500, 4, 0, 917501, 4, 0, 917502, 4, 0, 917503, 4, 0, 851968, 4, 0, 851969, 4, 0, 851970, 4, 0, 851971, 4, 0, 851972, 4, 0, 851973, 4, 0, 851974, 4, 0, 851975, 4, 0, 851976, 4, 0, 851977, 4, 0, 851978, 4, 0, 851979, 4, 0, 851980, 4, 0, 851981, 4, 0, 851982, 4, 0, 851983, 4, 0, 851984, 4, 0, 851985, 4, 0, 851986, 4, 0, 851987, 4, 0, 851988, 4, 0, 851989, 4, 0, 851990, 4, 0, 851991, 4, 0, 851992, 4, 0, 851993, 4, 0, 851994, 4, 0, 851995, 4, 0, 851996, 4, 0, 851997, 4, 0, 983030, 4, 0, 983031, 4, 0, 983032, 4, 0, 983033, 4, 0, 983034, 4, 0, 983035, 4, 0, 983036, 4, 0, 983037, 4, 0, 983038, 4, 0, 983039, 4, 0, 917504, 4, 0, 917505, 4, 0, 917506, 4, 0, 917507, 4, 0, 917508, 4, 0, 917509, 4, 0, 917510, 4, 0, 917511, 4, 0, 917512, 4, 0, 917513, 4, 0, 917514, 4, 0, 917515, 4, 0, 917516, 4, 0, 917517, 4, 0, 917518, 4, 0, 917519, 4, 0, 917520, 4, 0, 917521, 4, 0, 917522, 4, 0, 917523, 4, 0, 917524, 4, 0, 917525, 4, 0, 917526, 4, 0, 917527, 4, 0, 917528, 4, 0, 917529, 4, 0, 917530, 4, 0, 917531, 4, 0, 917532, 4, 0, 917533, 4, 0, 1048566, 4, 0, 1048567, 4, 0, 1048568, 4, 0, 1048569, 4, 0, 1048570, 4, 0, 1048571, 4, 0, 1048572, 4, 0, 1048573, 4, 0, 1048574, 4, 0, 1048575, 4, 0, 983040, 4, 0, 983041, 4, 0, 983042, 4, 0, 983043, 4, 0, 983044, 4, 0, 983045, 4, 0, 983046, 4, 0, 983047, 4, 0, 983048, 4, 0, 983049, 4, 0, 983050, 4, 0, 983051, 4, 0, 983052, 4, 0, 983053, 4, 0, 983054, 4, 0, 983055, 4, 0, 983056, 4, 0, 983057, 4, 0, 983058, 4, 0, 983059, 4, 0, 983060, 4, 0, 983061, 4, 0, 983062, 4, 0, 983063, 4, 0, 983064, 4, 0, 983065, 4, 0, 983066, 4, 0, 983067, 4, 0, 983068, 4, 0, 983069, 4, 0, 1114102, 4, 0, 1114103, 4, 0, 1114104, 4, 0, 1114105, 4, 0, 1114106, 4, 0, 1114107, 4, 0, 1114108, 4, 0, 1114109, 4, 0, 1114110, 4, 0, 1114111, 4, 0, 1048576, 4, 0, 1048577, 4, 0, 1048578, 4, 0, 1048579, 4, 0, 1048580, 4, 0, 1048581, 4, 0, 1048582, 4, 0, 1048583, 4, 0, 1048584, 4, 0, 1048585, 4, 0, 1048586, 4, 0, 1048587, 4, 0, 1048588, 4, 0, 1048589, 4, 0, 1048590, 4, 0, 1048591, 4, 0, 1048592, 4, 0, 1048593, 4, 0, 1048594, 4, 0, 1048595, 4, 0, 1048596, 4, 0, 1048597, 4, 0, 1048598, 4, 0, 1048599, 4, 0, 1048600, 4, 0, 1048601, 4, 0, 1048602, 4, 0, 1048603, 4, 0, 1048604, 4, 0, 1048605, 4, 0, 1179638, 4, 0, 1179639, 4, 0, 1179640, 4, 0, 1179641, 4, 0, 1179642, 4, 0, 1179643, 4, 0, 1179644, 4, 0, 1179645, 4, 0, 1179646, 4, 0, 1179647, 4, 0, 1114112, 4, 0, 1114113, 4, 0, 1114114, 4, 0, 1114115, 4, 0, 1114116, 4, 0, 1114117, 4, 0, 1114118, 4, 0, 1114119, 4, 0, 1114120, 4, 0, 1114121, 4, 0, 1114122, 4, 0, 1114123, 4, 0, 1114124, 4, 0, 1114125, 4, 0, 1114126, 4, 0, 1114127, 4, 0, 1114128, 4, 0, 1114129, 4, 0, 1114130, 4, 0, 1114131, 4, 0, 1114132, 4, 0, 1114133, 4, 0, 1114134, 4, 0, 1114135, 4, 0, 1114136, 4, 0, 1114137, 4, 0, 1114138, 4, 0, 1114139, 4, 0, 1114140, 4, 0, 1114141, 4, 0, 1245174, 4, 0, 1245175, 4, 0, 1245176, 4, 0, 1245177, 4, 0, 1245178, 4, 0, 1245179, 4, 0, 1245180, 4, 0, 1245181, 4, 0, 1245182, 4, 0, 1245183, 4, 0, 1179648, 4, 0, 1179649, 4, 0, 1179650, 4, 0, 1179651, 4, 0, 1179652, 4, 0, 1179653, 4, 0, 1179654, 4, 0, 1179655, 4, 0, 1179656, 4, 0, 1179657, 4, 0, 1179658, 4, 0, 1179659, 4, 0, 1179660, 4, 0, 1179661, 4, 0, 1179662, 4, 0, 1179663, 4, 0, 1179664, 4, 0, 1179665, 4, 0, 1179666, 4, 0, 1179667, 4, 0, 1179668, 4, 0, 1179669, 4, 0, 1179670, 4, 0, 1179671, 4, 0, 1179672, 4, 0, 1179673, 4, 0, 1179674, 4, 0, 1179675, 4, 0, 1179676, 4, 0, 1179677, 4, 0, 1310710, 4, 0, 1310711, 4, 0, 1310712, 4, 0, 1310713, 4, 0, 1310714, 4, 0, 1310715, 4, 0, 1310716, 4, 0, 1310717, 4, 0, 1310718, 4, 0, 1310719, 4, 0, 1245184, 4, 0, 1245185, 4, 0, 1245186, 4, 0, 1245187, 4, 0, 1245188, 4, 0, 1245189, 4, 0, 1245190, 4, 0, 1245191, 4, 0, 1245192, 4, 0, 1245193, 4, 0, 1245194, 4, 0, 1245195, 4, 0, 1245196, 4, 0, 1245197, 4, 0, 1245198, 4, 0, 1245199, 4, 0, 1245200, 4, 0, 1245201, 4, 0, 1245202, 4, 0, 1245203, 4, 0, 1245204, 4, 0, 1245205, 4, 0, 1245206, 4, 0, 1245207, 4, 0, 1245208, 4, 0, 1245209, 4, 0, 1245210, 4, 0, 1245211, 4, 0, 1245212, 4, 0, 1245213, 4, 0, 1376246, 4, 0, 1376247, 4, 0, 1376248, 4, 0, 1376249, 4, 0, 1376250, 4, 0, 1376251, 4, 0, 1376252, 4, 0, 1376253, 4, 0, 1376254, 4, 0, 1376255, 4, 0, 1310720, 4, 0, 1310721, 4, 0, 1310722, 4, 0, 1310723, 4, 0, 1310724, 4, 0, 1310725, 4, 0, 1310726, 4, 0, 1310727, 4, 0, 1310728, 4, 0, 1310729, 4, 0, 1310730, 4, 0, 1310731, 4, 0, 1310732, 4, 0, 1310733, 4, 0, 1310734, 4, 0, 1310735, 4, 0, 1310736, 4, 0, 1310737, 4, 0, 1310738, 4, 0, 1310739, 4, 0, 1310740, 4, 0, 1310741, 4, 0, 1310742, 4, 0, 1310743, 4, 0, 1310744, 4, 0, 1310745, 4, 0, 1310746, 4, 0, 1310747, 4, 0, 1310748, 4, 0, 1310749, 4, 0, 1441782, 4, 0, 1441783, 4, 0, 1441784, 4, 0, 1441785, 4, 0, 1441786, 4, 0, 1441787, 4, 0, 1441788, 4, 0, 1441789, 4, 0, 1441790, 4, 0, 1441791, 4, 0, 1376256, 4, 0, 1376257, 4, 0, 1376258, 4, 0, 1376259, 4, 0, 1376260, 4, 0, 1376261, 4, 0, 1376262, 4, 0, 1376263, 4, 0, 1376264, 4, 0, 1376265, 4, 0, 1376266, 4, 0, 1376267, 4, 0, 1376268, 4, 0, 1376269, 4, 0, 1376270, 4, 0, 1376271, 4, 0, 1376272, 4, 0, 1376273, 4, 0, 1376274, 4, 0, 1376275, 4, 0, 1376276, 4, 0, 1376277, 4, 0, 1376278, 4, 0, 1376279, 4, 0, 1376280, 4, 0, 1376281, 4, 0, 1376282, 4, 0, 1376283, 4, 0, 1376284, 4, 0, 1376285, 4, 0, 1507318, 4, 0, 1507319, 4, 0, 1507320, 4, 0, 1507321, 4, 0, 1507322, 4, 0, 1507323, 4, 0, 1507324, 4, 0, 1507325, 4, 0, 1507326, 4, 0, 1507327, 4, 0, 1441792, 4, 0, 1441793, 4, 0, 1441794, 4, 0, 1441795, 4, 0, 1441796, 4, 0, 1441797, 4, 0, 1441798, 4, 0, 1441799, 4, 0, 1441800, 4, 0, 1441801, 4, 0, 1441802, 4, 0, 1441803, 4, 0, 1441804, 4, 0, 1441805, 4, 0, 1441806, 4, 0, 1441807, 4, 0, 1441808, 4, 0, 1441809, 4, 0, 1441810, 4, 0, 1441811, 4, 0, 1441812, 4, 0, 1441813, 4, 0, 1441814, 4, 0, 1441815, 4, 0, 1441816, 4, 0, 1441817, 4, 0, 1441818, 4, 0, 1441819, 4, 0, 1441820, 4, 0, 1441821, 4, 0, 1572854, 4, 0, 1572855, 4, 0, 1572856, 4, 0, 1572857, 4, 0, 1572858, 4, 0, 1572859, 4, 0, 1572860, 4, 0, 1572861, 4, 0, 1572862, 4, 0, 1572863, 4, 0, 1507328, 4, 0, 1507329, 4, 0, 1507330, 4, 0, 1507331, 4, 0, 1507332, 4, 0, 1507333, 4, 0, 1507334, 4, 0, 1507335, 4, 0, 1507336, 4, 0, 1507337, 4, 0, 1507338, 4, 0, 1507339, 4, 0, 1507340, 4, 0, 1507341, 4, 0, 1507342, 4, 0, 1507343, 4, 0, 1507344, 4, 0, 1507345, 4, 0, 1507346, 4, 0, 1507347, 4, 0, 1507348, 4, 0, 1507349, 4, 0, 1507350, 4, 0, 1507351, 4, 0, 1507352, 4, 0, 1507353, 4, 0, 1507354, 4, 0, 1507355, 4, 0, 1507356, 4, 0, 1507357, 4, 0, 1638390, 4, 0, 1638391, 4, 0, 1638392, 4, 0, 1638393, 4, 0, 1638394, 4, 0, 1638395, 4, 0, 1638396, 4, 0, 1638397, 4, 0, 1638398, 4, 0, 1638399, 4, 0, 1572864, 4, 0, 1572865, 4, 0, 1572866, 4, 0, 1572867, 4, 0, 1572868, 4, 0, 1572869, 4, 0, 1572870, 4, 0, 1572871, 4, 0, 1572872, 4, 0, 1572873, 4, 0, 1572874, 4, 0, 1572875, 4, 0, 1572876, 4, 0, 1572877, 4, 0, 1572878, 4, 0, 1572879, 4, 0, 1572880, 4, 0, 1572881, 4, 0, 1572882, 4, 0, 1572883, 4, 0, 1572884, 4, 0, 1572885, 4, 0, 1572886, 4, 0, 1572887, 4, 0, 1572888, 4, 0, 1572889, 4, 0, 1572890, 4, 0, 1572891, 4, 0, 1572892, 4, 0, 1572893, 4, 0 )

[node name="PlantExclusion" type="TileMap" parent="."]
tile_set = ExtResource( 1 )
cell_size = Vector2( 128, 128 )
format = 1
tile_data = PoolIntArray( 17, 13, 0, 18, 13, 0, 65553, 13, 0, 65554, 13, 0, 131089, 13, 0, 131090, 13, 0, 131096, 13, 0, 131097, 13, 0, 131098, 13, 0, 131099, 13, 0, 131100, 13, 0, 131101, 13, 0, 131102, 13, 0, 131103, 13, 0, 131104, 13, 0, 131105, 13, 0, 131106, 13, 0, 131107, 13, 0, 131108, 13, 0, 131109, 13, 0, 196625, 13, 0, 196626, 13, 0, 196632, 13, 0, 196633, 13, 0, 196634, 13, 0, 196635, 13, 0, 196636, 13, 0, 196637, 13, 0, 196638, 13, 0, 196639, 13, 0, 196640, 13, 0, 196641, 13, 0, 196642, 13, 0, 196643, 13, 0, 196644, 13, 0, 196645, 13, 0, 262146, 13, 0, 262147, 13, 0, 262148, 13, 0, 262149, 13, 0, 262150, 13, 0, 262151, 13, 0, 262152, 13, 0, 262153, 13, 0, 262154, 13, 0, 262155, 13, 0, 262156, 13, 0, 262161, 13, 0, 262162, 13, 0, 262168, 13, 0, 262169, 13, 0, 262180, 13, 0, 262181, 13, 0, 327682, 13, 0, 327683, 13, 0, 327684, 13, 0, 327685, 13, 0, 327686, 13, 0, 327687, 13, 0, 327688, 13, 0, 327689, 13, 0, 327690, 13, 0, 327691, 13, 0, 327692, 13, 0, 327697, 13, 0, 327698, 13, 0, 327704, 13, 0, 327705, 13, 0, 327716, 13, 0, 327717, 13, 0, 393218, 13, 0, 393219, 13, 0, 393227, 13, 0, 393228, 13, 0, 393233, 13, 0, 393234, 13, 0, 393235, 13, 0, 393236, 13, 0, 393237, 13, 0, 393238, 13, 0, 393239, 13, 0, 393240, 13, 0, 393241, 13, 0, 393252, 13, 0, 393253, 13, 0, 458754, 13, 0, 458755, 13, 0, 458763, 13, 0, 458764, 13, 0, 458769, 13, 0, 458770, 13, 0, 458771, 13, 0, 458772, 13, 0, 458773, 13, 0, 458774, 13, 0, 458775, 13, 0, 458776, 13, 0, 458777, 13, 0, 458788, 13, 0, 458789, 13, 0, 524290, 13, 0, 524291, 13, 0, 524299, 13, 0, 524300, 13, 0, 524324, 13, 0, 524325, 13, 0, 589826, 13, 0, 589827, 13, 0, 589835, 13, 0, 589836, 13, 0, 589860, 13, 0, 589861, 13, 0, 655362, 13, 0, 655363, 13, 0, 655371, 13, 0, 655372, 13, 0, 655396, 13, 0, 655397, 13, 0, 720898, 13, 0, 720899, 13, 0, 720907, 13, 0, 720908, 13, 0, 720932, 13, 0, 720933, 13, 0, 786434, 13, 0, 786435, 13, 0, 786443, 13, 0, 786444, 13, 0, 786445, 13, 0, 786446, 13, 0, 786447, 13, 0, 786448, 13, 0, 786449, 13, 0, 786450, 13, 0, 786451, 13, 0, 786452, 13, 0, 786453, 13, 0, 786454, 13, 0, 786455, 13, 0, 786456, 13, 0, 786457, 13, 0, 786458, 13, 0, 786459, 13, 0, 786460, 13, 0, 786461, 13, 0, 786462, 13, 0, 786463, 13, 0, 786464, 13, 0, 786465, 13, 0, 786466, 13, 0, 786467, 13, 0, 786468, 13, 0, 786469, 13, 0, 851970, 13, 0, 851971, 13, 0, 851979, 13, 0, 851980, 13, 0, 851981, 13, 0, 851982, 13, 0, 851983, 13, 0, 851984, 13, 0, 851985, 13, 0, 851986, 13, 0, 851987, 13, 0, 851988, 13, 0, 851989, 13, 0, 851990, 13, 0, 851991, 13, 0, 851992, 13, 0, 851993, 13, 0, 851994, 13, 0, 851995, 13, 0, 851996, 13, 0, 851997, 13, 0, 851998, 13, 0, 851999, 13, 0, 852000, 13, 0, 852001, 13, 0, 852002, 13, 0, 852003, 13, 0, 852004, 13, 0, 852005, 13, 0, 917506, 13, 0, 917507, 13, 0, 983042, 13, 0, 983043, 13, 0, 1048578, 13, 0, 1048579, 13, 0, 1114114, 13, 0, 1114115, 13, 0, 1179650, 13, 0, 1179651, 13, 0, 1179652, 13, 0, 1179653, 13, 0, 1179654, 13, 0, 1179655, 13, 0, 1179656, 13, 0, 1179657, 13, 0, 1179658, 13, 0, 1179659, 13, 0, 1179660, 13, 0, 1179661, 13, 0, 1179662, 13, 0, 1179663, 13, 0, 1179664, 13, 0, 1179665, 13, 0, 1179666, 13, 0, 1179667, 13, 0, 1179668, 13, 0, 1179669, 13, 0, 1179670, 13, 0, 1179671, 13, 0, 1179672, 13, 0, 1179673, 13, 0, 1179674, 13, 0, 1179675, 13, 0, 1179676, 13, 0, 1179677, 13, 0, 1179678, 13, 0, 1245186, 13, 0, 1245187, 13, 0, 1245188, 13, 0, 1245189, 13, 0, 1245190, 13, 0, 1245191, 13, 0, 1245192, 13, 0, 1245193, 13, 0, 1245194, 13, 0, 1245195, 13, 0, 1245196, 13, 0, 1245197, 13, 0, 1245198, 13, 0, 1245199, 13, 0, 1245200, 13, 0, 1245201, 13, 0, 1245202, 13, 0, 1245203, 13, 0, 1245204, 13, 0, 1245205, 13, 0, 1245206, 13, 0, 1245207, 13, 0, 1245208, 13, 0, 1245209, 13, 0, 1245210, 13, 0, 1245211, 13, 0, 1245212, 13, 0, 1245213, 13, 0, 1245214, 13, 0, 1310749, 13, 0, 1310750, 13, 0, 1376285, 13, 0, 1376286, 13, 0, 1441821, 13, 0, 1441822, 13, 0, 1507357, 13, 0, 1507358, 13, 0, 1572893, 13, 0, 1572894, 13, 0, 1638429, 13, 0, 1638430, 13, 0, 1703965, 13, 0, 1703966, 13, 0 )

[node name="Path" type="Path2D" parent="."]
position = Vector2( 1279, 384 )
curve = SubResource( 3 )

[node name="Plants" type="Node2D" parent="."]
position = Vector2( 1, -1 )

[node name="Seeds" type="Node2D" parent="."]

[node name="Projectiles" type="Node2D" parent="."]
