[gd_scene load_steps=7 format=2]

[ext_resource path="res://assets/enemies/Enemy.png" type="Texture" id=1]
[ext_resource path="res://scenes/enemies/BlueTank.gd" type="Script" id=2]
[ext_resource path="res://assets/ui/HPbar.jpg" type="Texture" id=3]
[ext_resource path="res://scenes/support/shake.gd" type="Script" id=4]

[sub_resource type="RectangleShape2D" id=1]
extents = Vector2( 60.5, 35.7924 )

[sub_resource type="CircleShape2D" id=2]
radius = 46.0109

[node name="BlueTank" type="PathFollow2D" groups=["Enemy"]]
loop = false
script = ExtResource( 2 )
speed = 200
hp = 100

[node name="KinematicBody2D" type="KinematicBody2D" parent="." groups=["Enemy"]]
collision_layer = 2
collision_mask = 0

[node name="CollisionShape2D" type="CollisionShape2D" parent="KinematicBody2D" groups=["Enemy"]]
position = Vector2( -0.5, 1 )
scale = Vector2( 1, 1.0058 )
shape = SubResource( 1 )

[node name="Sprite" type="Sprite" parent="."]
rotation = 1.57097
texture = ExtResource( 1 )
script = ExtResource( 4 )
animationSpeed = 0.5
scaleUpperLimit = 1.0
randomFactorLowerBound = 0.8
randomFactorUpperBound = 1.0

[node name="HealthBar" type="TextureProgress" parent="."]
margin_left = -111.0
margin_top = -103.0
margin_right = 46.0
margin_bottom = -65.0
value = 50.0
texture_under = ExtResource( 3 )
texture_progress = ExtResource( 3 )
tint_under = Color( 0.207843, 0.207843, 0.207843, 1 )
tint_progress = Color( 0, 0.745098, 0, 1 )
nine_patch_stretch = true

[node name="Impact" type="Position2D" parent="."]
position = Vector2( -15, -15 )

[node name="Area2D" type="Area2D" parent="."]
collision_layer = 2
collision_mask = 4

[node name="CollisionShape2D" type="CollisionShape2D" parent="Area2D"]
shape = SubResource( 2 )
